%YAML 1.1
%TAG !u! tag:unity3d.com,2011:
--- !u!1045 &1
EditorBuildSettings:
  m_ObjectHideFlags: 0
  serializedVersion: 2
  m_Scenes:
  - enabled: 1
    path: Assets/Scenes/ChallengeTest.unity
    guid: bddfe2d3fa76d4df1bab9858c2585568
  m_configObjects: {}
